{
  "images" : [
    {
      "resizing" : {
        "mode" : "3-part-vertical",
        "center" : {
          "mode" : "tile",
          "height" : 1
        },
        "cap-insets" : {
          "top" : 763,
          "bottom" : 580
        }
      },
      "idiom" : "universal",
      "filename" : "logoin-60.png",
      "scale" : "1x"
    },
    {
      "resizing" : {
        "mode" : "3-part-vertical",
        "center" : {
          "mode" : "tile",
          "height" : 1
        },
        "cap-insets" : {
          "top" : 525,
          "bottom" : 43
        }
      },
      "idiom" : "universal",
      "filename" : "logoin-60.png",
      "scale" : "2x"
    },
    {
      "resizing" : {
        "mode" : "3-part-vertical",
        "center" : {
          "mode" : "tile",
          "height" : 1
        },
        "cap-insets" : {
          "top" : 525,
          "bottom" : 43
        }
      },
      "idiom" : "universal",
      "filename" : "logoin-60.png",
      "scale" : "3x"
    },
    {
      "filename" : "logoin-20.png",
      "resizing" : {
        "mode" : "3-part-vertical",
        "center" : {
          "mode" : "tile",
          "height" : 1
        },
        "cap-insets" : {
          "top" : 186,
          "bottom" : 14
        }
      }
    },
    {
      "filename" : "logoin-60.png",
      "resizing" : {
        "mode" : "3-part-vertical",
        "center" : {
          "mode" : "tile",
          "height" : 1
        },
        "cap-insets" : {
          "top" : 803,
          "bottom" : 56
        }
      }
    },
    {
      "filename" : "logoin-1080x1920-1.jpg",
      "resizing" : {
        "mode" : "3-part-vertical",
        "center" : {
          "mode" : "tile",
          "height" : 1
        },
        "cap-insets" : {
          "top" : 752,
          "bottom" : 56
        }
      }
    },
    {
      "resizing" : {
        "mode" : "3-part-vertical",
        "center" : {
          "mode" : "tile",
          "height" : 1
        },
        "cap-insets" : {
          "top" : 628,
          "bottom" : 14
        }
      },
      "filename" : "logoin-60.png",
      "unassigned" : true
    }
  ],
  "info" : {
    "version" : 1,
    "author" : "xcode"
  }
}