{
  "images" : [
    {
      "resizing" : {
        "mode" : "9-part",
        "center" : {
          "mode" : "tile",
          "width" : 1,
          "height" : 1
        },
        "cap-insets" : {
          "bottom" : 51,
          "top" : 48,
          "right" : 54,
          "left" : 50
        }
      },
      "idiom" : "universal",
      "filename" : "main_btn_1_bg~universal@1x.png",
      "scale" : "1x"
    },
    {
      "resizing" : {
        "mode" : "9-part",
        "center" : {
          "mode" : "tile",
          "width" : 1,
          "height" : 5
        },
        "cap-insets" : {
          "bottom" : 101,
          "top" : 94,
          "right" : 108,
          "left" : 101
        }
      },
      "idiom" : "universal",
      "filename" : "main_btn_1_bg~universal@2x.png",
      "scale" : "2x"
    },
    {
      "idiom" : "universal",
      "filename" : "main_btn_1_bg~universal@3x.png",
      "scale" : "3x"
    }
  ],
  "info" : {
    "version" : 1,
    "author" : "xcode"
  }
}